Data Science - Assingment 3; Pendling
…
arbeidsstedskommune: som vi gir navnet arb_kom

bostedskommune: som vi gir navnet bo_kom

år: som vi gir navnet aar

value: som vi gir navnet pendlere

Vi bryr oss altså ikke om kommunenummer i det videre arbeidet og jobber bare med kommunenavn som kategorivariabler.

Da skal vi ha noe som ser slik ut:

print(pend_00_22_boHland, n = 5)

# A tibble: 203,688 × 4
  aar   bo_kom    arb_kom            pendlere
  <chr> <chr>     <chr>                 <int>
1 2000  Haugesund Halden (2020-2023)        0
2 2001  Haugesund Halden (2020-2023)        0
3 2002  Haugesund Halden (2020-2023)        0
4 2003  Haugesund Halden (2020-2023)        0
5 2004  Haugesund Halden (2020-2023)        0
# ℹ 203,683 more rows

Gjør tilsvarende for pend_00_22_ssb_arbHland og plasser resultatet i pend_00_22_arbHland.

Da skal vi ende opp med noe som ser slik ut:

print(pend_00_22_arbHland, n = 5)

# A tibble: 203,688 × 4
  aar   arb_kom   bo_kom             pendlere
  <chr> <chr>     <chr>                 <int>
1 2000  Haugesund Halden (2020-2023)        0
2 2001  Haugesund Halden (2020-2023)        0
3 2002  Haugesund Halden (2020-2023)        0
4 2003  Haugesund Halden (2020-2023)        0
5 2004  Haugesund Halden (2020-2023)        0
# ℹ 203,683 more rows
…
