MSB105 - Model building
…
NYC flight data cont.

Code

# OK in slide output
options(tibble.print_min = 3)
print(daily, n = 3)

# A tibble: 365 × 2
  date           n
  <date>     <int>
1 2013-01-01   842
2 2013-01-02   943
3 2013-01-03   914
# ℹ 362 more rows
…
