Data Science - Assingment 3; Pendling
…
Da skal vi ha noe som ser slik ut:

print(pend_00_23_boNJ, n = 5)

# A tibble: 283,392 × 6
  aar   akom  akom_navn          bkom  bkom_navn       pendlere
  <chr> <chr> <chr>              <chr> <chr>              <int>
1 2000  k3001 Halden (2020-2023) k1102 Sandnes (-2019)        0
2 2001  k3001 Halden (2020-2023) k1102 Sandnes (-2019)        0
3 2002  k3001 Halden (2020-2023) k1102 Sandnes (-2019)        0
4 2003  k3001 Halden (2020-2023) k1102 Sandnes (-2019)        0
5 2004  k3001 Halden (2020-2023) k1102 Sandnes (-2019)        0
# ℹ 283,387 more rows

Gjør tilsvarende for pend_00_23_ssb_arbNJ og plasser resultatet i pend_00_23_arbNJ.

Da skal vi ende opp med noe som ser slik ut:

# A tibble: 283,392 × 6
  aar   akom  akom_navn       bkom  bkom_navn          pendlere
  <chr> <chr> <chr>           <chr> <chr>                 <int>
1 2000  k1102 Sandnes (-2019) k3001 Halden (2020-2023)        0
2 2001  k1102 Sandnes (-2019) k3001 Halden (2020-2023)        0
3 2002  k1102 Sandnes (-2019) k3001 Halden (2020-2023)        0
4 2003  k1102 Sandnes (-2019) k3001 Halden (2020-2023)        0
5 2004  k1102 Sandnes (-2019) k3001 Halden (2020-2023)        0
# ℹ 283,387 more rows
…
# pend_00_23_boNJ_agg
pend_00_23_boNJ_agg <- pend_00_23_boNJ |>
  group_by(nye_bkom, nye_akom, aar, 
           nye_bkom_navn, nye_akom_navn) |>
  summarise(pendlere = sum(pendlere), .groups = 'drop') |>
  ungroup() |>  
  select(aar, nye_akom, nye_akom_navn, nye_bkom, nye_bkom_navn, pendlere)

# A tibble: 3,744 × 6
  aar   nye_akom nye_akom_navn nye_bkom nye_bkom_navn pendlere
  <chr> <chr>    <chr>         <chr>    <chr>            <int>
1 2000  k1103    Stavanger     k1103    Stavanger        41755
2 2001  k1103    Stavanger     k1103    Stavanger        43136
3 2002  k1103    Stavanger     k1103    Stavanger        43142
4 2003  k1103    Stavanger     k1103    Stavanger        43186
5 2004  k1103    Stavanger     k1103    Stavanger        43472
# ℹ 3,739 more rows
…
pend_00_23_boNJ_agg |>
  distinct(nye_akom) |> 
  pull(nye_akom)

 [1] "k1103" "k1108" "k1114" "k1119" "k1120" "k1121" "k1122" "k1124" "k1127"
[10] "k1130" "k1133" "k1144" "k9999"

Arbeidssted Nord-Jæren

Hvor bor arbeidstakere som jobber på Nord-Jæren? Gjør sammen aggregering for pend_00_23_arbNJ som vi gjorde for pend_00_23_boNJ ovenfor.

Da skal vi få noe som ser slik ut:

# A tibble: 3,744 × 6
  aar   nye_akom nye_akom_navn nye_bkom nye_bkom_navn pendlere
  <chr> <chr>    <chr>         <chr>    <chr>            <int>
1 2000  k1103    Stavanger     k1103    Stavanger        41755
2 2001  k1103    Stavanger     k1103    Stavanger        43136
3 2002  k1103    Stavanger     k1103    Stavanger        43142
4 2003  k1103    Stavanger     k1103    Stavanger        43186
5 2004  k1103    Stavanger     k1103    Stavanger        43472
# ℹ 3,739 more rows
…
Vi henter data fra tabell 11616 fordi den gir oss data på fylkes-basis. Vi droppe «Svalbard og Jan Mayen» og «Kontinentalsokkelen» da det ikke finnes data for disse. Vi henter data for årene 2000 til 2023, begge kjønn, alder 15-74 år og ut fra hvor arbeidstakerne er bosatt. Vi er bare interessert i totalt antall arbeidstakere per år.

fnr <- c(
  "30", "01", "02", "06", "03", "34", "04", "05", "38",
  "07", "08", "42", "09", "10", "11", "46", "12", "14",
  "15", "50", "16", "17", "18", "54", "19", "20"
  )

Hent vha. ApiData12() opplysninger fra tabell 11616 om antall arbeidstakere bosatt i hvert fylke årene 2000 til 2023.

Vi lager en tibble med to variabler, «Tid» (dvs. årstall) og «arbtak_HL».

Toppen av tot_arb_HL skal da se slik ut:

# A tibble: 24 × 2
  aar   arbtak_HL
  <chr>     <int>
1 2000    2262000
2 2001    2275000
3 2002    2267000
4 2003    2260000
5 2004    2274000
# ℹ 19 more rows
…
Bruk så bind_rows() for å legge til totalt_arb og totalt_bo til pend_00_23 og legg resultatet i pendle_data_00_23. Her er det viktig at de tre har identiske variabelnavn og i samme rekkefølge.

Vi skal da ha:

dim(pendle_data_00_23)

[1] 4704    6

names(pendle_data_00_23)

[1] "aar"       "akom"      "akom_navn" "bkom"      "bkom_navn" "pendlere" 

print(pendle_data_00_23, n = 5)

# A tibble: 4,704 × 6
  aar   akom  akom_navn bkom  bkom_navn pendlere
  <chr> <chr> <chr>     <chr> <chr>        <int>
1 2000  k1103 Stavanger k1103 Stavanger    41755
2 2001  k1103 Stavanger k1103 Stavanger    43136
3 2002  k1103 Stavanger k1103 Stavanger    43142
4 2003  k1103 Stavanger k1103 Stavanger    43186
5 2004  k1103 Stavanger k1103 Stavanger    43472
# ℹ 4,699 more rows
…
n: 13

Og for datasettet vårt:

dim(andel_pendle_data_00_23_long)

[1] 4704    6

names(andel_pendle_data_00_23_long)

[1] "aar"       "akom"      "akom_navn" "bkom"      "bkom_navn" "andel"    

print(andel_pendle_data_00_23_long, n = 5, width = 76)

# A tibble: 4,704 × 6
  aar   akom  akom_navn bkom  bkom_navn   andel
  <chr> <chr> <chr>     <chr> <chr>       <dbl>
1 2000  k1103 Stavanger k1103 Stavanger 72.3   
2 2000  k1108 Sandnes   k1103 Stavanger  7.99  
3 2000  k1114 Bjerkreim k1103 Stavanger  0.0069
4 2000  k1119 Hå        k1103 Stavanger  0.154 
5 2000  k1120 Klepp     k1103 Stavanger  0.346 
# ℹ 4,699 more rows
…
