Data Science – Tidy Data
…
“new_sp_m014” etc. probably values not variables

who, gather variables

who1 <- who %>% 
  pivot_longer(cols = new_sp_m014:newrel_f65,
               names_to = "key",
               values_to = "cases",
               values_drop_na = TRUE
               )
who1

# A tibble: 76,046 × 6
   country     iso2  iso3   year key          cases
   <chr>       <chr> <chr> <dbl> <chr>        <dbl>
 1 Afghanistan AF    AFG    1997 new_sp_m014      0
 2 Afghanistan AF    AFG    1997 new_sp_m1524    10
 3 Afghanistan AF    AFG    1997 new_sp_m2534     6
 4 Afghanistan AF    AFG    1997 new_sp_m3544     3
 5 Afghanistan AF    AFG    1997 new_sp_m4554     5
 6 Afghanistan AF    AFG    1997 new_sp_m5564     2
 7 Afghanistan AF    AFG    1997 new_sp_m65       0
 8 Afghanistan AF    AFG    1997 new_sp_f014      5
 9 Afghanistan AF    AFG    1997 new_sp_f1524    38
10 Afghanistan AF    AFG    1997 new_sp_f2534    36
# ℹ 76,036 more rows
…
who2 <- who1 %>% 
  mutate(
    key = str_replace(key, "newrel", "new_rel")
  )

Separate out values from “key” variable

who3 <- who2 %>% 
  separate(col = key,
           into = c("new", "type", "sexage"),
           sep = "_"
           )
who3

# A tibble: 76,046 × 8
   country     iso2  iso3   year new   type  sexage cases
   <chr>       <chr> <chr> <dbl> <chr> <chr> <chr>  <dbl>
 1 Afghanistan AF    AFG    1997 new   sp    m014       0
 2 Afghanistan AF    AFG    1997 new   sp    m1524     10
 3 Afghanistan AF    AFG    1997 new   sp    m2534      6
 4 Afghanistan AF    AFG    1997 new   sp    m3544      3
 5 Afghanistan AF    AFG    1997 new   sp    m4554      5
 6 Afghanistan AF    AFG    1997 new   sp    m5564      2
 7 Afghanistan AF    AFG    1997 new   sp    m65        0
 8 Afghanistan AF    AFG    1997 new   sp    f014       5
 9 Afghanistan AF    AFG    1997 new   sp    f1524     38
10 Afghanistan AF    AFG    1997 new   sp    f2534     36
# ℹ 76,036 more rows

Drop variables and split sexage

who5 <- who3 %>% 
  select(-new, -iso2, -iso3) %>% 
  separate(col = sexage,
           into = c("sex", "age"),
           sep = 1
           )
who5

# A tibble: 76,046 × 6
   country      year type  sex   age   cases
   <chr>       <dbl> <chr> <chr> <chr> <dbl>
 1 Afghanistan  1997 sp    m     014       0
 2 Afghanistan  1997 sp    m     1524     10
 3 Afghanistan  1997 sp    m     2534      6
 4 Afghanistan  1997 sp    m     3544      3
 5 Afghanistan  1997 sp    m     4554      5
 6 Afghanistan  1997 sp    m     5564      2
 7 Afghanistan  1997 sp    m     65        0
 8 Afghanistan  1997 sp    f     014       5
 9 Afghanistan  1997 sp    f     1524     38
10 Afghanistan  1997 sp    f     2534     36
# ℹ 76,036 more rows
…
