Transforming Data – Data Science
…
Using filter(), from r4ds

print(
  filter(flights, month == 1, day == 1),
  n = 5, 
  width = 70
  )

# A tibble: 842 × 19
   year month   day dep_time sched_dep_time dep_delay arr_time
  <int> <int> <int>    <int>          <int>     <dbl>    <int>
1  2013     1     1      517            515         2      830
2  2013     1     1      533            529         4      850
3  2013     1     1      542            540         2      923
4  2013     1     1      544            545        -1     1004
5  2013     1     1      554            600        -6      812
# ℹ 837 more rows
# ℹ 12 more variables: sched_arr_time <int>, arr_delay <dbl>,
#   carrier <chr>, flight <int>, tailnum <chr>, origin <chr>,
#   dest <chr>, air_time <dbl>, distance <dbl>, hour <dbl>,
#   minute <dbl>, time_hour <dttm>

More filter-ex-1

print(
  filter(flights, month == 1, day %in% c(1, 15, 30)),
  n = 5,
  width = 70
  )

# A tibble: 2,636 × 19
   year month   day dep_time sched_dep_time dep_delay arr_time
  <int> <int> <int>    <int>          <int>     <dbl>    <int>
1  2013     1     1      517            515         2      830
2  2013     1     1      533            529         4      850
3  2013     1     1      542            540         2      923
4  2013     1     1      544            545        -1     1004
5  2013     1     1      554            600        -6      812
# ℹ 2,631 more rows
# ℹ 12 more variables: sched_arr_time <int>, arr_delay <dbl>,
#   carrier <chr>, flight <int>, tailnum <chr>, origin <chr>,
#   dest <chr>, air_time <dbl>, distance <dbl>, hour <dbl>,
#   minute <dbl>, time_hour <dttm>
…
How to count number of NAs in a vector?

sum(is.na(flights$arr_delay)) will return

9430

arrange() sorts rows

print(
  arrange(flights, year, month, day),
  n = 10,
  width = 70
  )

# A tibble: 336,776 × 19
    year month   day dep_time sched_dep_time dep_delay arr_time
   <int> <int> <int>    <int>          <int>     <dbl>    <int>
 1  2013     1     1      517            515         2      830
 2  2013     1     1      533            529         4      850
 3  2013     1     1      542            540         2      923
 4  2013     1     1      544            545        -1     1004
 5  2013     1     1      554            600        -6      812
 6  2013     1     1      554            558        -4      740
 7  2013     1     1      555            600        -5      913
 8  2013     1     1      557            600        -3      709
 9  2013     1     1      557            600        -3      838
10  2013     1     1      558            600        -2      753
# ℹ 336,766 more rows
# ℹ 12 more variables: sched_arr_time <int>, arr_delay <dbl>,
#   carrier <chr>, flight <int>, tailnum <chr>, origin <chr>,
#   dest <chr>, air_time <dbl>, distance <dbl>, hour <dbl>,
#   minute <dbl>, time_hour <dttm>

arrange() sorts rows as pipe

flights %>% 
  arrange(year, month, day) %>% 
  print(n = 10, width = 70)

# A tibble: 336,776 × 19
    year month   day dep_time sched_dep_time dep_delay arr_time
   <int> <int> <int>    <int>          <int>     <dbl>    <int>
 1  2013     1     1      517            515         2      830
 2  2013     1     1      533            529         4      850
 3  2013     1     1      542            540         2      923
 4  2013     1     1      544            545        -1     1004
 5  2013     1     1      554            600        -6      812
 6  2013     1     1      554            558        -4      740
 7  2013     1     1      555            600        -5      913
 8  2013     1     1      557            600        -3      709
 9  2013     1     1      557            600        -3      838
10  2013     1     1      558            600        -2      753
# ℹ 336,766 more rows
# ℹ 12 more variables: sched_arr_time <int>, arr_delay <dbl>,
#   carrier <chr>, flight <int>, tailnum <chr>, origin <chr>,
#   dest <chr>, air_time <dbl>, distance <dbl>, hour <dbl>,
#   minute <dbl>, time_hour <dttm>

arrange() sort rows decending

#dec. first
print(arrange(flights, year, desc(month), day), n = 10, width = 70)

# A tibble: 336,776 × 19
    year month   day dep_time sched_dep_time dep_delay arr_time
   <int> <int> <int>    <int>          <int>     <dbl>    <int>
 1  2013    12     1       13           2359        14      446
 2  2013    12     1       17           2359        18      443
 3  2013    12     1      453            500        -7      636
 4  2013    12     1      520            515         5      749
 5  2013    12     1      536            540        -4      845
 6  2013    12     1      540            550       -10     1005
 7  2013    12     1      541            545        -4      734
 8  2013    12     1      546            545         1      826
 9  2013    12     1      549            600       -11      648
10  2013    12     1      550            600       -10      825
# ℹ 336,766 more rows
# ℹ 12 more variables: sched_arr_time <int>, arr_delay <dbl>,
#   carrier <chr>, flight <int>, tailnum <chr>, origin <chr>,
#   dest <chr>, air_time <dbl>, distance <dbl>, hour <dbl>,
#   minute <dbl>, time_hour <dttm>

select() selects the variables you want

(my_vars <- select(flights, day, month, year, arr_delay))

# A tibble: 336,776 × 4
     day month  year arr_delay
   <int> <int> <int>     <dbl>
 1     1     1  2013        11
 2     1     1  2013        20
 3     1     1  2013        33
 4     1     1  2013       -18
 5     1     1  2013       -25
 6     1     1  2013        12
 7     1     1  2013        19
 8     1     1  2013       -14
 9     1     1  2013        -8
10     1     1  2013         8
# ℹ 336,766 more rows
…
