MSB105 - Many models
…
Nested dataframes

That was easy!

What’s in by_country?

. . .

by_country

# A tibble: 90 × 3
# Groups:   country, continent [90]
   country      continent data             
   <chr>        <chr>     <list>           
 1 Argentina    Americas  <tibble [12 × 4]>
 2 Australia    Oceania   <tibble [12 × 4]>
 3 Austria      Europe    <tibble [12 × 4]>
 4 Burundi      Africa    <tibble [12 × 4]>
 5 Belgium      Europe    <tibble [12 × 4]>
 6 Benin        Africa    <tibble [12 × 4]>
 7 Burkina Faso Africa    <tibble [12 × 4]>
 8 Bangladesh   Asia      <tibble [12 × 4]>
 9 Bahamas      Americas  <tibble [12 × 4]>
10 Belize       Americas  <tibble [12 × 4]>
# ℹ 80 more rows
…
Want to map this function onto the data for each country

Store it in by_country as the variable model

. . .

by_country <- by_country %>% 
  # remember map(data, function), our data named data
  mutate(model = map(data, .f = country_model))

print(by_country, n = 3)

# A tibble: 90 × 4
# Groups:   country, continent [90]
  country   continent data              model 
  <chr>     <chr>     <list>            <list>
1 Argentina Americas  <tibble [12 × 4]> <lm>  
2 Australia Oceania   <tibble [12 × 4]> <lm>  
3 Austria   Europe    <tibble [12 × 4]> <lm>  
# ℹ 87 more rows
…
Then we have added the residuals for each country to by_country

How to get things out of their nest?

unnest()

Say we want to see the residuals. How will we get them?

. . .

res_90c <- by_country %>% 
  unnest(res)
print(res_90c, n = 4)

# A tibble: 1,080 × 9
# Groups:   country, continent [90]
  country   continent data     model  year       lifeExp    pop gdpPercap  resid
  <chr>     <chr>     <list>   <list> <date>       <dbl>  <dbl>     <dbl>  <dbl>
1 Argentina Americas  <tibble> <lm>   1962-01-01    64.4 2.12e7     5711. -0.365
2 Argentina Americas  <tibble> <lm>   1967-01-01    64.9 2.28e7     6255. -1.06 
3 Argentina Americas  <tibble> <lm>   1972-01-01    66.2 2.47e7     7369. -0.945
4 Argentina Americas  <tibble> <lm>   1977-01-01    68.4 2.67e7     7744.  0.105
# ℹ 1,076 more rows

Residuals and the variables for Norway

res_90c %>% 
  filter(country == "Norway") %>% 
  print(n = 5)

# A tibble: 12 × 9
# Groups:   country, continent [1]
  country continent data     model  year       lifeExp     pop gdpPercap   resid
  <chr>   <chr>     <list>   <list> <date>       <dbl>   <dbl>     <dbl>   <dbl>
1 Norway  Europe    <tibble> <lm>   1962-01-01    73.2 3639213    24912.  0.637 
2 Norway  Europe    <tibble> <lm>   1967-01-01    73.8 3784867    30311.  0.383 
3 Norway  Europe    <tibble> <lm>   1972-01-01    74.2 3933726    35368. -0.110 
4 Norway  Europe    <tibble> <lm>   1977-01-01    75.1 4044335    43237. -0.0544
5 Norway  Europe    <tibble> <lm>   1982-01-01    75.8 4111650    49046. -0.148 
# ℹ 7 more rows
…
The worst fit in Africa

Model quality, preserve mod_summary

by_country <- by_country %>%
  mutate(mod_summary = map(.x = model, .f = glance))

by_country %>% 
  # drop = TRUE, deprecated, use select() instead
  select(-data, -model, -res) %>% 
  # new interface, wrap in c()
  unnest(c(mod_summary)) %>% 
  print(n = 4)

# A tibble: 90 × 14
# Groups:   country, continent [90]
  country  continent r.squared adj.r.squared sigma statistic
  <chr>    <chr>         <dbl>         <dbl> <dbl>     <dbl>
1 Argenti… Americas      0.962         0.958 0.882    252.  
2 Austral… Oceania       0.983         0.981 0.589    581.  
3 Austria  Europe        0.991         0.990 0.441   1052.  
4 Burundi  Africa        0.456         0.402 8.32       8.40
# ℹ 86 more rows
# ℹ 8 more variables: p.value <dbl>, df <dbl>,
#   logLik <dbl>, AIC <dbl>, BIC <dbl>, deviance <dbl>,
#   df.residual <int>, nobs <int>

The 10 best models

by_country %>% 
  # drop = TRUE, deprecated, use select() instead
  select(-data, -model, -res) %>% 
  # new interface, wrap in c()
  unnest(c(mod_summary)) %>% 
  arrange(desc(adj.r.squared)) %>% 
  print(n = 10)

# A tibble: 90 × 14
# Groups:   country, continent [90]
   country continent r.squared adj.r.squared sigma statistic
   <chr>   <chr>         <dbl>         <dbl> <dbl>     <dbl>
 1 France  Europe        0.998         0.998 0.168     6500.
 2 Sweden  Europe        0.998         0.998 0.152     4524.
 3 Singap… Asia          0.997         0.997 0.353     3183.
 4 Italy   Europe        0.997         0.996 0.274     3076.
 5 Bolivia Americas      0.996         0.995 0.634     2215.
 6 Belgium Europe        0.995         0.994 0.293     1866.
 7 Finland Europe        0.994         0.994 0.345     1702.
 8 Luxemb… Europe        0.993         0.993 0.370     1486.
 9 Haiti   Americas      0.993         0.993 0.613     1483.
10 Maurit… Africa        0.993         0.992 0.590     1453.
# ℹ 80 more rows
# ℹ 8 more variables: p.value <dbl>, df <dbl>,
#   logLik <dbl>, AIC <dbl>, BIC <dbl>, deviance <dbl>,
#   df.residual <int>, nobs <int>

The 10 worst models

by_country %>% 
  # drop = TRUE, deprecated, use select() instead
  select(-data, -model, -res) %>% 
  # new interface, wrap in c()
  unnest(c(mod_summary)) %>% 
  arrange(adj.r.squared) %>% 
  print(n = 10)

# A tibble: 90 × 14
# Groups:   country, continent [90]
   country continent r.squared adj.r.squared sigma statistic
   <chr>   <chr>         <dbl>         <dbl> <dbl>     <dbl>
 1 Zambia  Africa       0.0574       -0.0369  5.17     0.609
 2 Zimbab… Africa       0.0585       -0.0357  5.80     0.621
 3 South … Africa       0.0633       -0.0304  4.50     0.675
 4 Lesotho Africa       0.233         0.157   4.66     3.04 
 5 Botswa… Africa       0.256         0.181   4.70     3.43 
 6 Kenya   Africa       0.262         0.188   3.38     3.55 
 7 Centra… Africa       0.271         0.199   2.49     3.73 
 8 Fiji    Oceania      0.386         0.325   1.22     6.30 
 9 Burundi Africa       0.456         0.402   8.32     8.40 
10 Malawi  Africa       0.613         0.575   4.20    15.9  
# ℹ 80 more rows
# ℹ 8 more variables: p.value <dbl>, df <dbl>,
#   logLik <dbl>, AIC <dbl>, BIC <dbl>, deviance <dbl>,
#   df.residual <int>, nobs <int>
…
Tidy data with broom

Gives us model coefficients and accompanying statistics

. . .

by_country <- by_country %>%
  mutate(mod_tidy = map(.x = model, .f = tidy))

by_country %>%
  select(-data, -res, -mod_summary) %>% 
  unnest(mod_tidy) %>% 
  print(n = 4)

# A tibble: 180 × 8
# Groups:   country, continent [90]
  country continent model term  estimate std.error statistic
  <chr>   <chr>     <lis> <chr>    <dbl>     <dbl>     <dbl>
1 Argent… Americas  <lm>  (Int…  6.67e+1 0.384         174. 
2 Argent… Americas  <lm>  year   6.41e-4 0.0000404      15.9
3 Austra… Oceania   <lm>  (Int…  7.21e+1 0.256         281. 
4 Austra… Oceania   <lm>  year   6.50e-4 0.0000270      24.1
# ℹ 176 more rows
# ℹ 1 more variable: p.value <dbl>
…
broom:augment()

augment() gives us a lot of goodies regarding the model

. . .

by_country <- by_country %>%
  mutate(mod_aug = map(.x = model, .f = augment))

by_country %>%
  select(-data, -res, -mod_summary, -mod_tidy, -c(model:pred18)) %>% 
  unnest(mod_aug) %>% 
  print(n = 4)

# A tibble: 1,080 × 10
# Groups:   country, continent [90]
  country  continent lifeExp year       .fitted .resid  .hat
  <chr>    <chr>       <dbl> <date>       <dbl>  <dbl> <dbl>
1 Argenti… Americas     64.4 1962-01-01    64.8 -0.365 0.295
2 Argenti… Americas     64.9 1967-01-01    66.0 -1.06  0.225
3 Argenti… Americas     66.2 1972-01-01    67.1 -0.945 0.169
4 Argenti… Americas     68.4 1977-01-01    68.3  0.105 0.127
# ℹ 1,076 more rows
# ℹ 3 more variables: .sigma <dbl>, .cooksd <dbl>,
#   .std.resid <dbl>
…
